{"failedCount":0,"prefixedPath":"src\/test\/java\/get_api_test\/GetApi.feature","packageQualifiedName":"src.test.java.get_api_test.GetApi","loopIndex":-1,"relativePath":"src\/test\/java\/get_api_test\/GetApi.feature","scenarioResults":[{"sectionIndex":3,"stepResults":[{"result":{"nanos":70286900,"millis":70.2869,"status":"passed"},"step":{"background":true,"line":4,"prefix":"*","index":0,"text":"url 'https:\/\/reqres.in\/api'"}},{"result":{"nanos":445100,"millis":0.4451,"status":"passed"},"step":{"background":true,"line":5,"prefix":"*","index":1,"text":"header Accept = 'application\/json'"}},{"result":{"nanos":264000,"millis":0.264,"status":"passed"},"step":{"line":39,"prefix":"Given","index":0,"text":"path '\/users'"}},{"result":{"nanos":6083400,"millis":6.0834,"status":"passed"},"step":{"comments":["#Parámetros a usar"],"line":41,"prefix":"And","index":1,"text":"param page = 2"}},{"result":{"nanos":1161728900,"millis":1161.7289,"status":"passed"},"step":{"line":42,"prefix":"When","index":2,"text":"method GET"},"stepLog":"09:53:22.494 request:\n1 > GET https:\/\/reqres.in\/api\/users?page=2\n1 > Accept: application\/json\n1 > Host: reqres.in\n1 > Connection: Keep-Alive\n1 > User-Agent: Apache-HttpClient\/4.5.13 (Java\/1.8.0_351)\n1 > Accept-Encoding: gzip,deflate\n\n\n09:53:23.190 response time in milliseconds: 694\n1 < 200\n1 < Date: Tue, 09 May 2023 14:53:23 GMT\n1 < Content-Type: application\/json; charset=utf-8\n1 < Transfer-Encoding: chunked\n1 < Connection: keep-alive\n1 < X-Powered-By: Express\n1 < Access-Control-Allow-Origin: *\n1 < Etag: W\/\"406-ut0vzoCuidvyMf8arZpMpJ6ZRDw\"\n1 < Via: 1.1 vegur\n1 < Cache-Control: max-age=14400\n1 < CF-Cache-Status: HIT\n1 < Age: 3679\n1 < Report-To: {\"endpoints\":[{\"url\":\"https:\\\/\\\/a.nel.cloudflare.com\\\/report\\\/v3?s=HUy2qj5p9jeO0g9buY%2Bp2vnM7IcwYjVAryTsEocNBmTE%2BV2KTK8SiNcNeV4QuNwbHUWioaklS94jj9YU82HSZ6LjizjrsJYkeGETJcQC%2FNWefRszpda0GgYUZA%3D%3D\"}],\"group\":\"cf-nel\",\"max_age\":604800}\n1 < NEL: {\"success_fraction\":0,\"report_to\":\"cf-nel\",\"max_age\":604800}\n1 < Vary: Accept-Encoding\n1 < Server: cloudflare\n1 < CF-RAY: 7c4ac58b3fdc221e-MIA\n{\"page\":2,\"per_page\":6,\"total\":12,\"total_pages\":2,\"data\":[{\"id\":7,\"email\":\"michael.lawson@reqres.in\",\"first_name\":\"Michael\",\"last_name\":\"Lawson\",\"avatar\":\"https:\/\/reqres.in\/img\/faces\/7-image.jpg\"},{\"id\":8,\"email\":\"lindsay.ferguson@reqres.in\",\"first_name\":\"Lindsay\",\"last_name\":\"Ferguson\",\"avatar\":\"https:\/\/reqres.in\/img\/faces\/8-image.jpg\"},{\"id\":9,\"email\":\"tobias.funke@reqres.in\",\"first_name\":\"Tobias\",\"last_name\":\"Funke\",\"avatar\":\"https:\/\/reqres.in\/img\/faces\/9-image.jpg\"},{\"id\":10,\"email\":\"byron.fields@reqres.in\",\"first_name\":\"Byron\",\"last_name\":\"Fields\",\"avatar\":\"https:\/\/reqres.in\/img\/faces\/10-image.jpg\"},{\"id\":11,\"email\":\"george.edwards@reqres.in\",\"first_name\":\"George\",\"last_name\":\"Edwards\",\"avatar\":\"https:\/\/reqres.in\/img\/faces\/11-image.jpg\"},{\"id\":12,\"email\":\"rachel.howell@reqres.in\",\"first_name\":\"Rachel\",\"last_name\":\"Howell\",\"avatar\":\"https:\/\/reqres.in\/img\/faces\/12-image.jpg\"}],\"support\":{\"url\":\"https:\/\/reqres.in\/#support-heading\",\"text\":\"To keep ReqRes free, contributions towards server costs are appreciated!\"}}\n\n"},{"result":{"nanos":11300,"millis":0.0113,"status":"passed"},"step":{"line":43,"prefix":"Then","index":3,"text":"status 200"}},{"result":{"nanos":67960200,"millis":67.9602,"status":"passed"},"step":{"line":44,"prefix":"And","index":4,"text":"print response"},"stepLog":"09:53:23.284 [print] {\n  \"page\": 2,\n  \"per_page\": 6,\n  \"total\": 12,\n  \"total_pages\": 2,\n  \"data\": [\n    {\n      \"id\": 7,\n      \"email\": \"michael.lawson@reqres.in\",\n      \"first_name\": \"Michael\",\n      \"last_name\": \"Lawson\",\n      \"avatar\": \"https:\/\/reqres.in\/img\/faces\/7-image.jpg\"\n    },\n    {\n      \"id\": 8,\n      \"email\": \"lindsay.ferguson@reqres.in\",\n      \"first_name\": \"Lindsay\",\n      \"last_name\": \"Ferguson\",\n      \"avatar\": \"https:\/\/reqres.in\/img\/faces\/8-image.jpg\"\n    },\n    {\n      \"id\": 9,\n      \"email\": \"tobias.funke@reqres.in\",\n      \"first_name\": \"Tobias\",\n      \"last_name\": \"Funke\",\n      \"avatar\": \"https:\/\/reqres.in\/img\/faces\/9-image.jpg\"\n    },\n    {\n      \"id\": 10,\n      \"email\": \"byron.fields@reqres.in\",\n      \"first_name\": \"Byron\",\n      \"last_name\": \"Fields\",\n      \"avatar\": \"https:\/\/reqres.in\/img\/faces\/10-image.jpg\"\n    },\n    {\n      \"id\": 11,\n      \"email\": \"george.edwards@reqres.in\",\n      \"first_name\": \"George\",\n      \"last_name\": \"Edwards\",\n      \"avatar\": \"https:\/\/reqres.in\/img\/faces\/11-image.jpg\"\n    },\n    {\n      \"id\": 12,\n      \"email\": \"rachel.howell@reqres.in\",\n      \"first_name\": \"Rachel\",\n      \"last_name\": \"Howell\",\n      \"avatar\": \"https:\/\/reqres.in\/img\/faces\/12-image.jpg\"\n    }\n  ],\n  \"support\": {\n    \"url\": \"https:\/\/reqres.in\/#support-heading\",\n    \"text\": \"To keep ReqRes free, contributions towards server costs are appreciated!\"\n  }\n}\n \n"},{"result":{"nanos":30951000,"millis":30.951,"status":"passed"},"step":{"line":45,"prefix":"And","index":5,"text":"match response.data[0].first_name != null"}},{"result":{"nanos":9007300,"millis":9.0073,"status":"passed"},"step":{"line":46,"prefix":"And","index":6,"text":"assert response.data.length == 6"}},{"result":{"nanos":980100,"millis":0.9801,"status":"passed"},"step":{"line":47,"prefix":"And","index":7,"text":"match response.data[3].id == 10"}}],"executorName":"main","line":37,"name":"Get Request with Assertions","description":"","durationMillis":1347.7182,"startTime":1683644001963,"failed":false,"refId":"[4:37]","endTime":1683644003325,"exampleIndex":-1}],"callDepth":0,"name":"Get API demo","description":"","resultDate":"2023-05-09 09:53:23 AM","durationMillis":1347.7182,"passedCount":1}