{"failedCount":0,"prefixedPath":"src\/test\/java\/get_api_test\/get_api.feature","packageQualifiedName":"src.test.java.get_api_test.get_api","loopIndex":-1,"relativePath":"src\/test\/java\/get_api_test\/get_api.feature","scenarioResults":[{"sectionIndex":1,"stepResults":[{"result":{"nanos":95663900,"millis":95.6639,"status":"passed"},"step":{"background":true,"line":5,"prefix":"*","index":0,"text":"url 'https:\/\/reqres.in\/api'"}},{"result":{"nanos":572300,"millis":0.5723,"status":"passed"},"step":{"background":true,"line":6,"prefix":"*","index":1,"text":"header Accept = 'application\/json'"}},{"result":{"nanos":143198700,"millis":143.1987,"status":"passed"},"step":{"background":true,"line":7,"prefix":"*","index":2,"text":"def expectedOutput = read(\"response.json\")"}},{"result":{"nanos":658300,"millis":0.6583,"status":"passed"},"step":{"comments":["#Endpoint de la api"],"line":23,"prefix":"Given","index":0,"text":"path '\/users?page=2'"}},{"result":{"nanos":12825817100,"millis":12825.8171,"status":"passed"},"step":{"line":24,"prefix":"When","index":1,"text":"method GET"},"stepLog":"14:48:43.101 request:\n1 > GET https:\/\/reqres.in\/api\/users%3Fpage=2\n1 > Accept: application\/json\n1 > Host: reqres.in\n1 > Connection: Keep-Alive\n1 > User-Agent: Apache-HttpClient\/4.5.13 (Java\/1.8.0_351)\n1 > Accept-Encoding: gzip,deflate\n\n\n14:48:55.156 response time in milliseconds: 12052\n1 < 200\n1 < Date: Wed, 10 May 2023 19:48:51 GMT\n1 < Content-Type: application\/json; charset=utf-8\n1 < Transfer-Encoding: chunked\n1 < Connection: keep-alive\n1 < X-Powered-By: Express\n1 < Access-Control-Allow-Origin: *\n1 < Etag: W\/\"2c1-N6Rqerxquq2kgQhL51EiSg4x0R8\"\n1 < Via: 1.1 vegur\n1 < Cache-Control: max-age=14400\n1 < CF-Cache-Status: MISS\n1 < Report-To: {\"endpoints\":[{\"url\":\"https:\\\/\\\/a.nel.cloudflare.com\\\/report\\\/v3?s=yUtSnLr6AW834DnEv%2BtiO9NAEKa6HpTsHAXVt8XYqwq2U03t787eMHlnpOPcPpHwo17p3LTIh1AvBcE2WWkJd2uGyd92np4JUf8EvXgUB75Z1Q0tCtPpxHBj1Q%3D%3D\"}],\"group\":\"cf-nel\",\"max_age\":604800}\n1 < NEL: {\"success_fraction\":0,\"report_to\":\"cf-nel\",\"max_age\":604800}\n1 < Vary: Accept-Encoding\n1 < Server: cloudflare\n1 < CF-RAY: 7c54b3be2a5467b7-MIA\n{\"page\":1,\"per_page\":6,\"total\":12,\"total_pages\":2,\"data\":[{\"id\":1,\"name\":\"cerulean\",\"year\":2000,\"color\":\"#98B2D1\",\"pantone_value\":\"15-4020\"},{\"id\":2,\"name\":\"fuchsia rose\",\"year\":2001,\"color\":\"#C74375\",\"pantone_value\":\"17-2031\"},{\"id\":3,\"name\":\"true red\",\"year\":2002,\"color\":\"#BF1932\",\"pantone_value\":\"19-1664\"},{\"id\":4,\"name\":\"aqua sky\",\"year\":2003,\"color\":\"#7BC4C4\",\"pantone_value\":\"14-4811\"},{\"id\":5,\"name\":\"tigerlily\",\"year\":2004,\"color\":\"#E2583E\",\"pantone_value\":\"17-1456\"},{\"id\":6,\"name\":\"blue turquoise\",\"year\":2005,\"color\":\"#53B0AE\",\"pantone_value\":\"15-5217\"}],\"support\":{\"url\":\"https:\/\/reqres.in\/#support-heading\",\"text\":\"To keep ReqRes free, contributions towards server costs are appreciated!\"}}\n\n"},{"result":{"nanos":28200,"millis":0.0282,"status":"passed"},"step":{"line":25,"prefix":"Then","index":2,"text":"status 200"}},{"result":{"nanos":12851800,"millis":12.8518,"status":"passed"},"step":{"line":26,"prefix":"And","index":3,"text":"print response"},"stepLog":"14:48:55.177 [print] {\n  \"page\": 1,\n  \"per_page\": 6,\n  \"total\": 12,\n  \"total_pages\": 2,\n  \"data\": [\n    {\n      \"id\": 1,\n      \"name\": \"cerulean\",\n      \"year\": 2000,\n      \"color\": \"#98B2D1\",\n      \"pantone_value\": \"15-4020\"\n    },\n    {\n      \"id\": 2,\n      \"name\": \"fuchsia rose\",\n      \"year\": 2001,\n      \"color\": \"#C74375\",\n      \"pantone_value\": \"17-2031\"\n    },\n    {\n      \"id\": 3,\n      \"name\": \"true red\",\n      \"year\": 2002,\n      \"color\": \"#BF1932\",\n      \"pantone_value\": \"19-1664\"\n    },\n    {\n      \"id\": 4,\n      \"name\": \"aqua sky\",\n      \"year\": 2003,\n      \"color\": \"#7BC4C4\",\n      \"pantone_value\": \"14-4811\"\n    },\n    {\n      \"id\": 5,\n      \"name\": \"tigerlily\",\n      \"year\": 2004,\n      \"color\": \"#E2583E\",\n      \"pantone_value\": \"17-1456\"\n    },\n    {\n      \"id\": 6,\n      \"name\": \"blue turquoise\",\n      \"year\": 2005,\n      \"color\": \"#53B0AE\",\n      \"pantone_value\": \"15-5217\"\n    }\n  ],\n  \"support\": {\n    \"url\": \"https:\/\/reqres.in\/#support-heading\",\n    \"text\": \"To keep ReqRes free, contributions towards server costs are appreciated!\"\n  }\n}\n \n"}],"executorName":"main","line":21,"name":"Get Request with background","description":"","durationMillis":13078.7903,"startTime":1683748122085,"failed":false,"refId":"[2:21]","endTime":1683748135177,"exampleIndex":-1}],"callDepth":0,"name":"Get API demo","description":"","resultDate":"2023-05-10 02:48:55 PM","durationMillis":13078.7903,"passedCount":1}