{"failedCount":0,"prefixedPath":"src\/test\/java\/get_api_test\/get_api.feature","packageQualifiedName":"src.test.java.get_api_test.get_api","loopIndex":-1,"relativePath":"src\/test\/java\/get_api_test\/get_api.feature","scenarioResults":[{"sectionIndex":5,"stepResults":[{"result":{"nanos":59751900,"millis":59.7519,"status":"passed"},"step":{"background":true,"line":5,"prefix":"*","index":0,"text":"url 'https:\/\/reqres.in\/api'"}},{"result":{"nanos":428100,"millis":0.4281,"status":"passed"},"step":{"background":true,"line":6,"prefix":"*","index":1,"text":"header Accept = 'application\/json'"}},{"result":{"nanos":210400,"millis":0.2104,"status":"passed"},"step":{"line":61,"prefix":"Given","index":0,"text":"path '\/unknown'"}},{"result":{"nanos":1070548900,"millis":1070.5489,"status":"passed"},"step":{"line":62,"prefix":"When","index":1,"text":"method GET"},"stepLog":"13:44:39.525 request:\n1 > GET https:\/\/reqres.in\/api\/unknown\n1 > Accept: application\/json\n1 > Host: reqres.in\n1 > Connection: Keep-Alive\n1 > User-Agent: Apache-HttpClient\/4.5.13 (Java\/1.8.0_351)\n1 > Accept-Encoding: gzip,deflate\n\n\n13:44:40.142 response time in milliseconds: 615\n1 < 200\n1 < Date: Tue, 09 May 2023 18:44:40 GMT\n1 < Content-Type: application\/json; charset=utf-8\n1 < Transfer-Encoding: chunked\n1 < Connection: keep-alive\n1 < X-Powered-By: Express\n1 < Access-Control-Allow-Origin: *\n1 < Etag: W\/\"2c1-N6Rqerxquq2kgQhL51EiSg4x0R8\"\n1 < Via: 1.1 vegur\n1 < Cache-Control: max-age=14400\n1 < CF-Cache-Status: REVALIDATED\n1 < Report-To: {\"endpoints\":[{\"url\":\"https:\\\/\\\/a.nel.cloudflare.com\\\/report\\\/v3?s=3X4Wr16F9dvSrU39Sbhp%2Bkd1IU9HRxmVDd%2BL79CUfGA8bVLEs%2FNNY%2FehgaR5xult2Wl8zv8lJf0ZvjeswBb%2Fq151gbkjwQMowVd34Swyi%2FpnaB03TfwQ%2FFLUDg%3D%3D\"}],\"group\":\"cf-nel\",\"max_age\":604800}\n1 < NEL: {\"success_fraction\":0,\"report_to\":\"cf-nel\",\"max_age\":604800}\n1 < Vary: Accept-Encoding\n1 < Server: cloudflare\n1 < CF-RAY: 7c4c18550e348dc1-MIA\n{\"page\":1,\"per_page\":6,\"total\":12,\"total_pages\":2,\"data\":[{\"id\":1,\"name\":\"cerulean\",\"year\":2000,\"color\":\"#98B2D1\",\"pantone_value\":\"15-4020\"},{\"id\":2,\"name\":\"fuchsia rose\",\"year\":2001,\"color\":\"#C74375\",\"pantone_value\":\"17-2031\"},{\"id\":3,\"name\":\"true red\",\"year\":2002,\"color\":\"#BF1932\",\"pantone_value\":\"19-1664\"},{\"id\":4,\"name\":\"aqua sky\",\"year\":2003,\"color\":\"#7BC4C4\",\"pantone_value\":\"14-4811\"},{\"id\":5,\"name\":\"tigerlily\",\"year\":2004,\"color\":\"#E2583E\",\"pantone_value\":\"17-1456\"},{\"id\":6,\"name\":\"blue turquoise\",\"year\":2005,\"color\":\"#53B0AE\",\"pantone_value\":\"15-5217\"}],\"support\":{\"url\":\"https:\/\/reqres.in\/#support-heading\",\"text\":\"To keep ReqRes free, contributions towards server costs are appreciated!\"}}\n\n"},{"result":{"nanos":11100,"millis":0.0111,"status":"passed"},"step":{"line":63,"prefix":"Then","index":2,"text":"status 200"}},{"result":{"nanos":54648700,"millis":54.6487,"status":"passed"},"step":{"line":64,"prefix":"And","index":3,"text":"print response"},"stepLog":"13:44:40.218 [print] {\n  \"page\": 1,\n  \"per_page\": 6,\n  \"total\": 12,\n  \"total_pages\": 2,\n  \"data\": [\n    {\n      \"id\": 1,\n      \"name\": \"cerulean\",\n      \"year\": 2000,\n      \"color\": \"#98B2D1\",\n      \"pantone_value\": \"15-4020\"\n    },\n    {\n      \"id\": 2,\n      \"name\": \"fuchsia rose\",\n      \"year\": 2001,\n      \"color\": \"#C74375\",\n      \"pantone_value\": \"17-2031\"\n    },\n    {\n      \"id\": 3,\n      \"name\": \"true red\",\n      \"year\": 2002,\n      \"color\": \"#BF1932\",\n      \"pantone_value\": \"19-1664\"\n    },\n    {\n      \"id\": 4,\n      \"name\": \"aqua sky\",\n      \"year\": 2003,\n      \"color\": \"#7BC4C4\",\n      \"pantone_value\": \"14-4811\"\n    },\n    {\n      \"id\": 5,\n      \"name\": \"tigerlily\",\n      \"year\": 2004,\n      \"color\": \"#E2583E\",\n      \"pantone_value\": \"17-1456\"\n    },\n    {\n      \"id\": 6,\n      \"name\": \"blue turquoise\",\n      \"year\": 2005,\n      \"color\": \"#53B0AE\",\n      \"pantone_value\": \"15-5217\"\n    }\n  ],\n  \"support\": {\n    \"url\": \"https:\/\/reqres.in\/#support-heading\",\n    \"text\": \"To keep ReqRes free, contributions towards server costs are appreciated!\"\n  }\n}\n \n"},{"result":{"nanos":24501400,"millis":24.5014,"status":"passed"},"step":{"line":65,"prefix":"And","index":4,"text":"match $.data[2].name == 'true red'"}},{"result":{"nanos":912500,"millis":0.9125,"status":"passed"},"step":{"line":66,"prefix":"And","index":5,"text":"match $.data[2].color == '#BF1932'"}}],"executorName":"main","line":60,"name":"Practica list resource Get Request","description":"","durationMillis":1211.013,"startTime":1683657879024,"failed":false,"refId":"[6:60]","endTime":1683657880244,"exampleIndex":-1}],"callDepth":0,"name":"Get API demo","description":"","resultDate":"2023-05-09 01:44:40 PM","durationMillis":1211.013,"passedCount":1}